https://resources.infosecinstitute.com/the-bodgeit-store-part-2/
https://passionforpentesting.com/2018/01/16/the-bodgeit-store-series-4-find-diagnostic-data-bodgeit-infosec-pentest-appsec-webapp/
https://thefluffy007.com/2018/01/16/the-bodgeit-store-series-4-find-diagnostic-data-bodgeit-infosec-pentest-appsec-webapp/
http://ender0101.blogspot.com/2014/08/bodgeit.html
