https://www.youtube.com/watch?v=O_ONiJi-pwI
http://security-is-just-an-illusion.blogspot.com/2014/01/bwapp-others-bugs.html
https://tipstrickshack.blogspot.com/2012/11/how-to-exploit-robotstxt.html
https://www.youtube.com/watch?v=xT5-zAww45Y
https://www.youtube.com/watch?v=pqRZqg32a-o
https://github.com/raesene/bWAPP/blob/master/app/robots.txt
https://wooly6bear.files.wordpress.com/2016/01/bwapp-tutorial.pdf
https://blog.csdn.net/syy0201/article/details/89197310
https://leeminki.github.io/webhack/2019/02/14/WebHack_Study_15.html
https://www.dideo.ir/v/yt/e32WzC4j7ck/%EC%9B%B9%ED%95%B4%ED%82%B9-63.-a5-bwapp-security-misconfiguration
https://kakyouim.hatenablog.com/entry/2020/02/04/215117
https://zhuanlan.zhihu.com/p/108758160
https://www.jianshu.com/p/ce101c32c785
https://dokumen.tips/documents/bwapp-sanjiv-kawa-wordpresscom-nbsppdf-filephp-code-injection.html
https://4hou.win/wordpress/?paged=7&author=589
