https://github.com/bsqrl/juice-shop-walkthrough#24-find-the-hidden-easter-egg
https://github.com/apox64/OWASP-Juice-Shop-Write-Up/blob/master/juice-shop-writeup.md#24-find-the-hidden-easter-egg
https://github.com/bkimminich/pwning-juice-shop/blob/master/appendix/solutions.md#perform-a-persisted-xss-attack-bypassing-a-client-side-security-mechanism
https://incognitjoe.github.io/hacking-the-juice-shop.htmlhttps://github.com/bsqrl/juice-shop-walkthrough#25-apply-some-advanced-cryptanalysis-to-find-the-real-easter-egg
