https://www.fwhibbit.es/guia-metasploitable-2-parte-1
https://metasploit.help.rapid7.com/docs/metasploitable-2-exploitability-guide
https://stuffwithaurum.blog/2015/06/14/metasploitable-2-walkthrough-an-exploitation-guide/
https://www.youtube.com/watch?v=pQNB4tRgmJo
https://311hrs.wordpress.com/2016/03/14/metasploitable-2-rpcbind-nfs-part-3/
http://y2u.be/pQNB4tRgmJo
https://a.ndronic.us/guides/metasploit/html/index.html#__RefHeading___Toc1470_210526659
https://medium.com/@joe_norton/exploiting-metasploitable-without-metasploit-nfs-enumeration-and-exploiting-misconfiguration-86504ccd15b9
http://www.reydes.com/d/?q=Explotar_el_Servicio_NFS_en_Metasploitable_2
https://www.computersecuritystudent.com/SECURITY_TOOLS/METASPLOITABLE/EXPLOIT/lesson4/index.html
https://www.youtube.com/watch?v=FlRAA-1UXWQ
https://www.youtube.com/watch?v=ObmGG-RO9yg
https://charlesreid1.com/wiki/Metasploitable/NFS
https://www.youtube.com/watch?v=RixFFnUaR90
https://www.youtube.com/watch?v=eGTHLGV6fBA
https://pentestlab.blog/2013/01/20/nfs-misconfiguration/
https://www.youtube.com/watch?v=OJb0xa8qAow
https://www.youtube.com/watch?v=qtJNTsUAjzc
