https://metasploit.help.rapid7.com/docs/metasploitable-2-exploitability-guide
https://stuffwithaurum.blog/2015/06/14/metasploitable-2-walkthrough-an-exploitation-guide/
https://unix.stackexchange.com/questions/325873/possible-to-show-metasploitable-linux-password-in-plain-text
https://resources.infosecinstitute.com/metasploitable-2-walkthrough/
https://medium.com/ehsahil/basic-penetration-testing-lab-1-7544969cb3ac
https://metaspolitable2.wordpress.com/2017/10/06/first-blog-post/
https://unix.stackexchange.com/questions/194825/how-to-achieve-root-privilege-in-metasploitable-2-linux
https://pdrcybersecurity.com/auditing-default-weak-login-credentials/
https://informationtreasure.wordpress.com/2014/07/25/metasploitable-2-vulnerability-assessment-and-remote-login/
https://asecuritysite.com/csn10107_lab07_backdoor.pdf
https://akvilekiskis.com/work/metasploitable/index.html
https://medium.com/@chandrapal/history-of-metasploitables-af318e0954b1
