https://kupdf.net/download/demotestfirenet-security-report-86_5b0466cde2b6f5b31f0e6896_pdf
https://www.ibm.com/developerworks/community/blogs/48a78681-82cc-434f-9c78-3e9117bfd466/resource/demo.testfire.netSecurityReport.pdf?lang=en
https://by-clips.com/video/Uhbaw6ovKc8/idor-vulnerability-of-altoro-mutual-site-2.html
https://by-clips.com/video/AFjHywj6VVc/altoro-mutual-original-page.html
https://resources.infosecinstitute.com/web-services-penetration-testing-part-7-fuzzing-burp/#gref
https://by-clips.com/video/BqM2af2cv74/altoro-mutual-movie.html
https://by-clips.com/video/5euKwYMwNPI/idor-vulnerability-in-altoro-mutual-site.html
https://by-clips.com/video/l-5VMKh7Amo/xss-stored-altoromutual.html
https://www.itsc.cuhk.edu.hk/images/content/privacy-security/vas-web/wasample.pdf