https://www.youtube.com/watch?v=Og3vNKnUSac
https://www.youtube.com/watch?v=dvi2uxKHrsk
https://www.youtube.com/watch?v=T7xG4ODwMzM
https://www.youtube.com/watch?v=ne6mlGUZ0Mg
https://www.youtube.com/watch?v=59JBrimEjxQ
https://www.youtube.com/watch?v=ypOX6jktAys&t=7s
https://www.youtube.com/watch?v=GTObw6g4tZo
https://www.youtube.com/watch?v=nviWO6yIgMo
https://www.youtube.com/watch?v=dfuWeEYXl4g
https://www.youtube.com/watch?v=M8-XGtHYJxU
http://www.xianxianlabs.com/2018/06/03/webgoat1/#Authentication_Bypasses
