https://github.com/rapid7/metasploitable3/wiki/Vulnerabilities
https://gu4r15m0.blogspot.com/2017/01/metasploitable-3-exploiting-tomcat.html
https://zarsec2.wordpress.com/2018/06/26/metasploitable-3-apache-tomcat-service/
https://www.hackingarticles.in/penetration-testing-metasploitable-3-smb-tomcat/
