https://www.aldeid.com/wiki/WackoPicko/Multi-Step-Stored-XSS
https://www.youtube.com/watch?v=iVcOcU7ghhc
https://www.youtube.com/watch?v=74IdGmx5oQ0
http://sefcom.asu.edu/publications/black-box-scanners-dimva2010.pdf
https://www.researchgate.net/figure/Multi-step-XSS-attack-workflow-of-picture-comment-using-WackoPicko_fig3_272794419
https://www.youtube.com/watch?v=bBgdHS7i-dc
