https://www.youtube.com/watch?v=-A3vVqfP8pA
https://skysec.top/2017/07/18/SQLi-LABS(Basic)(Less-1%20~%20Less-22)/#Less-22
https://www.cnblogs.com/pureqh/p/sqlilabs-less1-less22.html
https://www.cnblogs.com/hack404/p/11050548.html
https://blog.csdn.net/zhhy7788/article/details/79595719
https://raw.githubusercontent.com/WangYihang/sqli-labs/master/writeup/Lesson-22.md
https://flora.gitbooks.io/web-application-security/sqli-labs_lesson_21_&_22.html
https://raw.githubusercontent.com/gr4vit0n/sqli-labs-solution/master/less22.py
https://pureqh.top/?p=604
https://www.kingkk.com/2017/12/sqli-labs%E7%BB%83%E4%B9%A0(less11-22)/
https://www.dazhuanlan.com/2019/10/05/5d978d8e50572/
https://altman.vip/2018/02/05/sqli-labs%201/
https://www.andseclab.com/2018/06/17/sqli-labs-%E8%BF%9B%E9%98%B6%E6%8C%91%E6%88%98%E4%B8%8021-30/
https://blog.csdn.net/u014029795/article/details/88587249
https://blog.csdn.net/x728999452/article/details/52237958
https://www.itdaan.com/tw/7732dd995d1c
https://wu125.github.io/2018/11/19/SQLi-Labs-%E5%9F%BA%E7%A1%80%E9%A2%9811-22%E6%8C%87%E5%8D%97/
https://www.qingtingip.com/h_321963.html
https://wxt406611016.github.io/2019/03/07/sqli-labs(1_22)/
https://clwsec.top/2019/03/21/sqli-labs-Less21-37/
http://shangdixinxi.com/detail-1263983.html
http://byd.dropsec.xyz/2016/07/29/SQL-Labs%E5%AD%A6%E4%B9%A0%E7%AC%94%E8%AE%B0/
https://www.geek-share.com/detail/2681926162.html
https://www.jianshu.com/p/1fc798bc7759
https://www.itdaan.com/tw/7a666f1ae2c40197636bc73d32f6eedb
https://www.sketchplane.top/2019/10/08/SQLI%E5%AD%A6%E4%B9%A0%E8%AE%B0%E5%BD%95/
https://blog.zeddyu.info/2019/03/03/Sqli-lab%E9%80%9F%E5%88%B7%E8%AE%B0%E5%BD%95(1-53)/#Less-22
https://freehk.top/2019/02/10/sqli-labs-sql%E6%B3%A8%E5%85%A5adv/
https://blog.csdn.net/qq_21500173/article/details/51964908
https://www.jianshu.com/p/d077c978a693
http://flag0.com/2019/10/05/sqli-lib/
https://www.bbsmax.com/A/kvJ3EqN9dg/
