https://github.com/bsqrl/juice-shop-walkthrough#3-log-in-with-the-administrators-user-account
https://github.com/apox64/OWASP-Juice-Shop-Write-Up/blob/master/juice-shop-writeup.md#8-log-in-with-the-administrators-user-account
https://github.com/bkimminich/pwning-juice-shop/blob/master/appendix/solutions.md#log-in-with-the-administrators-user-account
https://www.youtube.com/watch?v=F8iRF2d-YzE&t=14s
https://youtu.be/Cz37iejTsH4?t=8m51s
https://ryan-villarreal.com/2018/06/29/juice-shop-walkthrough-part-1/
https://incognitjoe.github.io/hacking-the-juice-shop.html
https://n0j.github.io/2018/08/01/owasp-juice-shop-v7.3.0-level-2.html
https://bkimminich.gitbooks.io/pwning-owasp-juice-shop/content/appendix/solutions.html
https://www.youtube.com/watch?v=S1cHXFFVXUM&list=PLelhKCa4OeJN56V4KF-CglBV15oS7MQUK&index=12
http://m4l1ce.me/writeups/2017/01/09/juice-shop.html
https://github.com/pastelito02/Challenges-sol/blob/master/JuiceShop/Bsqrl/solutions.md
https://github.com/pastelito02/Challenges-sol/blob/master/JuiceShop/Apox64/solutions.md#8-log-in-with-the-administrators-user-account
https://github.com/pastelito02/Challenges-sol/blob/master/JuiceShop/Bkmminich/solutions.md#8-log-in-with-the-administrators-user-account
https://medium.com/@tommarler/owasp-juice-shop-63d1c328192b
https://null-byte.wonderhowto.com/how-to/beginners-guide-owasp-juice-shop-your-practice-hacking-grounds-for-10-most-common-web-app-vulnerabilities-0185103/
https://www.omerlh.info/2018/12/23/hacking-juice-shop-the-devsecops-way/
https://www.youtube.com/watch?v=Lu0-kDdtVf4
https://neversec.top/20180319/OWASP%20Juice%20Shop%20writeup.html
http://shaobaobaoer.cn/archives/510/owasp-juice-shop
https://www.youtube.com/watch?v=S1cHXFFVXUM
https://bkimminich.gitbooks.io/pwning-owasp-juice-shop/content/part2/injection.html
https://github.com/apox64/OWASP-Juice-Shop-Write-Up/blob/master/juice-shop-writeup.md
https://bkimminich.gitbooks.io/pwning-owasp-juice-shop/content/part2/broken-authentication.html
https://raw.githubusercontent.com/apox64/OWASP-Juice-Shop-Write-Up/master/juice-shop-writeup.md
