https://youtu.be/la5hTlSDKWg
https://youtu.be/2Ehp33BLRmI
https://youtu.be/KxqY_bp13gc
https://www.irongeek.com/i.php?page=videos/web-application-pen-testing-tutorials-with-mutillidae#determine-http-methods-using-netcat
https://www.youtube.com/watch?v=uSfGeyJKIVA
https://www.youtube.com/watch?v=MxiVx7e_FbM

https://www.youtube.com/watch?v=t8w6Bd5zxbU&list=PLZOToVAK85MrsyNmNp0yyUTBXqKRTh623&index=67
