https://blog.rapid7.com/2017/06/15/about-user-enumeration/
https://www.linuxsecrets.com/owasp-wiki/index.php/Ruby_on_Rails_Cheatsheet.html
https://www.youtube.com/watch?v=WCO7LnSlskE
https://www.youtube.com/watch?v=z0kkVyyLVnc
https://raw.githubusercontent.com/OWASP/railsgoat/master/README.md
https://studylib.net/doc/5407868/hands-on-with-railsgoat-web-application-security-testing-...
https://www.owasp.org/index.php/Testing_for_Default_or_Guessable_User_Account_(OWASP-AT-003)
https://nvisium.com/blog/2014/09/24/an-update-on-railsgoat-vagrantdocker.html
https://www.vdalabs.com/2018/01/12/rails-vulnerabilities-find-part-1/
https://www.baeldung.com/spring-security-enumeration-attacks
