https://computersecuritystudent.com/SECURITY_TOOLS/MUTILLIDAE/MUTILLIDAE_2511/lesson4/index.html
https://tipstrickshack.blogspot.com/2013/11/broken-authentication-session.html
https://www.irongeek.com/i.php?page=videos/web-application-pen-testing-tutorials-with-mutillidae
https://youtu.be/qsE04AhlJrc
https://youtu.be/frtkNB5G3vI
https://youtu.be/XnOqNCd31B4
https://youtu.be/kNSAhKiXctA
https://youtu.be/P52EuH9MnTs
https://youtu.be/4Fz9mJeMNkI
https://youtu.be/la5hTlSDKWg
https://youtu.be/KxqY_bp13gc
https://www.youtube.com/watch?v=0BeI-d_riuY
