https://a.ndronic.us/guides/metasploit/html/index.html#__RefHeading___Toc1460_210526659
https://www.youtube.com/watch?v=PjsTq39cmxM
https://www.youtube.com/watch?v=pjhUP_MjF-g
https://311hrs.wordpress.com/2016/05/06/metasploitable-2-vnc-part-9/
http://thehackpot.blogspot.com/2014/12/attacking-metasploitable-vnc-services.html
http://www.gcura.tech/metasploitable-2-exploitation-guide/
https://metasploit.help.rapid7.com/docs/metasploitable-2-exploitability-guide
https://saiyanpentesting.com/metasploitable-vnc/
https://www.ceos3c.com/hacking/how-to-hack-vnc-with-metasploit/
https://mundo-hackers.weebly.com/puerto-5900---vnc.html
https://fwhibbit.es/guia-metasploitable-2-parte-3
