https://www.youtube.com/watch?v=SNX5aBGh3Fc
https://www.youtube.com/watch?v=D5d9r8FJ2f8
https://www.youtube.com/watch?v=bVcJgeA9g34
http://www.reydes.com/d/?q=Explotar_Vulnerabilidad_de_Twiki_en_Metasploitable_2
https://www.fwhibbit.es/guia-metasploitable-2-parte-2
http://chousensha.github.io/blog/2014/06/03/pentest-lab-metasploitable-2/
https://blog.g0tmi1k.com/2010/07/metasploitable-tikiwiki/
https://medium.com/@chandrapal/history-of-metasploitables-af318e0954b1
https://l33thacker.com/metasploitable-2-walkthrough/
https://gr00vehack3r.wordpress.com/category/tutorials/metasploitable/page/2/