https://www.youtube.com/watch?v=UuS2Q5APdls
https://www.youtube.com/watch?v=RPgIVHEZx6o
https://www.youtube.com/watch?v=JTZS5SC2oGE&t=2s
https://www.youtube.com/watch?v=Qhbhu2dqkeU&t=4s
https://www.youtube.com/watch?v=GDMFz-P2nvM
https://www.youtube.com/watch?v=Cf-GnmQrHpM
https://www.youtube.com/watch?v=CZJqqdmwlZ8
https://www.youtube.com/watch?v=Q-C2nAS8VtQ&t=3s
https://www.youtube.com/watch?v=HOOf0qM6EUE
https://www.youtube.com/watch?v=_cBed6-ufIQ
https://www.youtube.com/watch?v=Q74xR9PP23U
https://harpreetsinghpassi.wordpress.com/2016/07/31/injection-attacks-part-2/
