https://www.aldeid.com/wiki/WackoPicko/Forceful-Browsing
https://www.youtube.com/watch?v=74IdGmx5oQ0
http://sefcom.asu.edu/publications/black-box-scanners-dimva2010.pdf
https://www.youtube.com/watch?v=bBgdHS7i-dc
