https://resources.infosecinstitute.com/the-bodgeit-store-part-1-2/
https://www.synackfin.tech/documents/Final_Report_CS_Fundamentals.pdf
https://cybergeeksl.blogspot.com/2017/
http://ender0101.blogspot.com/2014/08/bodgeit.html
