https://www.irongeek.com/i.php?page=videos/web-application-pen-testing-tutorials-with-mutillidae
https://www.youtube.com/watch?v=mEbmturLljU
https://youtu.be/YGRoFU0USRA
http://swepssecurity.blogspot.com/2014/05/bypassing-encrypted-session-tokens.html
http://y2u.be/mEbmturLljU
