https://www.youtube.com/watch?v=S2mQBXcW3P0
https://www.youtube.com/watch?v=sHSMUBHpFSo
https://www.youtube.com/watch?v=wtahzm_R8e4
https://www.youtube.com/watch?v=WbySlbxl11Y
https://www.youtube.com/watch?v=JTZS5SC2oGE
https://www.youtube.com/watch?v=VKLPp1ryrfM&t=4s
https://www.youtube.com/watch?v=dmfwY5KpKDI
https://www.youtube.com/watch?v=iUbqJy_MOiE
https://www.youtube.com/watch?v=lJRtcL42vdA&t=2s
https://www.youtube.com/watch?v=di5hZZ8Ty8g
https://github.com/theand-fork/bwapp-code/issues/1
https://defendtheweb.net/discussion/604-ldap-injection-tutorial
https://www.youtube.com/watch?v=K0q10q9BQAk
