https://skysec.top/2017/07/18/SQLi-LABS(Basic)(Less-1%20~%20Less-22)/#Less-18
https://topic.alibabacloud.com/a/sqli-labs-less18-post-header-injection-uagent-field-error-based-error-based-user-agent-header-post-injection_8_8_30018415.html
https://raw.githubusercontent.com/gr4vit0n/sqli-labs-solution/master/less18.py
https://www.cnblogs.com/litlife/p/8519794.html
https://youtu.be/5P-knuYoDdw
