https://www.youtube.com/watch?v=nvyK-87Em_k
https://www.youtube.com/watch?v=t3nYuhAHOMg
https://www.youtube.com/watch?v=k6_kIfVG80c
http://gursevkalra.blogspot.com/2013/08/bypassing-same-origin-policy-with-flash.html
https://www.paladion.net/blogs/weak-crossdomain-xml-and-its-exploitation-poc
https://nmap.org/nsedoc/scripts/http-cross-domain-policy.html
https://www.acunetix.com/vulnerabilities/web/insecure-crossdomain-xml-file/
https://darksh3ll.info/index.php/20-how-to-exploit-crossdomain-xml-misconfiguration
https://docplayer.net/44193111-Bwapp-sanjiv-kawa-bwapp-page-1.html
http://keclips.com/ke-play/Keclips-exploiting-cross-domain-policy-vulnerability-in-bwapp-application-KenvyK-87Em_k.html